{
  "type": "service_account",
  "project_id": "attendance-8e3db",
  "private_key_id": "fc725fc99a016e28996b7b8c47135c3e180c81be",
  "private_key": "-----BEGIN PRIVATE KEY-----\nMIIEvgIBADANBgkqhkiG9w0BAQEFAASCBKgwggSkAgEAAoIBAQDMMOpyDmG//6Rl\nY3FCsXDr3bmtkVRsqGp7rhQq8TPrCz0lxDLcvQmhCyNWejplsn9zGgI4vqfO26EC\nl3Emgx8T7Re3yPMyVhlyp2Ut3+addd1OTZZ9eWLVeAV7NoflhjD+gSKWddAnrWFI\nerRLuUd2wXQvyJSu3cr1HAhCnLPjf8k7G13kODDmhc0sMolpLIaG2LSxVHOJVEe1\nqSXFPa1Cgt2WxB+0EnQ9kX10819H8LfKpMXyfsCaXjhgAkkAbb+98MYCpL3bYcnP\n82DRN74umJEKjyy1qwDC+aJLXtsxJERQLxKqY9nH0ktdv4woC1/4NGSdytfmoE5/\nIkua2Sy9AgMBAAECggEABL1xWwON9EBmbAS05TmYxGtU5NxUWe+T7Ab67vjcvdNS\nNuosMxcZUUZHEPoZfz33eu/+E4KlHLM/Z6Ylb7suyyffe21cORoqESqlIBcMDUvM\nsh793a/mCGYQaU9dmryn4c4uHYRV626sYDVNZUE2qtSFUoALWyU8OAuC5PoqkkVp\nuf1ZODX0qAAzE7p9+0leK/rjv92xBgxcuV9aENbKKadD+eV22pSsQ75FDxDmr8VD\nSmS61589CnmfKh1FZxtIqTkxVx2FD73RPgd/dnPOopwnP7JpYUS/Frgbchy3uoUj\nw4JkHsAmZjlxekbdXnaYJHHS90yXYAq5DeP7DZaUqQKBgQD5oEfyk5WhQKVfKtM3\nRqRXXn6EV/olEvLXvHBqT7E7F60c/MJm0l8hSOkisrzS0WlF2Tcsn0mdA+RSjeQk\nUuGv8w/GBAJEbTlSfzCkHRKAwvD1I68HZXbS1MOkHN5fcTnggw/qkipOvHH//IcB\nI2QgoaEyWiIM5M17xHbKQb/lBQKBgQDRZ6RPXQ6/nNkSUV+0x39Dr+bM0MBbRyyl\nlmIHMPxFQ+TvE4JDzJHJzZ8KU8QutPMUAR/Z91wZoduMKNsTZErWLvmBpYZVtnfK\nww1q2zkj379Kr37hV+Oveu3AWvtzDVWSu3xss0rGMBPStXV7udq2W8nkKDivtTfc\nzEg3ud22WQKBgAYukPmR7Be1OSM1NUveJP3A6lMutpQqdvcexI3tcU8sU+4u2EWh\nmheB7bwdPw3df8TqDzK8sx7/VK0ytF6t6sbntxFJUiENr2i6m6LE0Yt8yGjZvGDr\ng1jPShULXfpxHGTR+hfuDLwscIpNX66IiNdCCXLsxoEZPXl+MQ7rN+xdAoGBALft\nG4Hlz513i6YuOSzVCTAPoV4GgN3rfwiWNNXyLbI89ykSbplUZjzlUSrF9ou7vcG1\nVx+gx5Fv/CF4hSvcLGtB6T75fytr0H4UooVXtjGPRjq4OG5/PuoTxB3vC+q7LI1s\nBdaICEZZVh/96AnbbYI8zvCKb3fNaRqTh18C7v1JAoGBAL2Ypq5Q4fvdUjvkgqqv\n893lyMTXgpScTbCryJLM42aSL0/tQihp/QDVbRU1oJfB0AWuOSbRQlJefje4F3kk\nBT014lC7R+c7//HH8P415CIOht3Vg457A5S5mzLHAKVACu8WXFb9lyVL1I+zIXZv\nlJexOsyFcDbD/rauyUVHBws2\n-----END PRIVATE KEY-----\n",
  "client_email": "firebase-adminsdk-zs9hp@attendance-8e3db.iam.gserviceaccount.com",
  "client_id": "112879578268772996773",
  "auth_uri": "https://accounts.google.com/o/oauth2/auth",
  "token_uri": "https://accounts.google.com/o/oauth2/token",
  "auth_provider_x509_cert_url": "https://www.googleapis.com/oauth2/v1/certs",
  "client_x509_cert_url": "https://www.googleapis.com/robot/v1/metadata/x509/firebase-adminsdk-zs9hp%40attendance-8e3db.iam.gserviceaccount.com"
}
